{
    "cartState" : 1,
    "currentRegion" : "us",
    "currentYear" : 2019,
    "preorderShift" : 0,
    "preorderDiscount" : 0.25,
    "region": [
        {
            "code" : "us", 
            "commonName" : "U.S.",
            "longName" : "United States",
            "demonym" : "U.S.",
            "startYear" : 1926,
            "products" : [
                { "productType" : "h", "region" : "us" },
                { "productType" : "w", "region" : "us" }
            ],
            "languages" : [ "en" ],
            "currencyCode" : "USD"
        },
        {
            "code" : "ca",
            "commonName" : "Canada",
            "longName" : "Canada",
            "demonym" : "canadian",
            "startYear" : 1935,
            "products" : [
                { "productType" : "h", "region" : "ca" },
                { "productType" : "w", "region" : "ca" }
            ],
            "languages" : [ "en", "fr" ],
            "currencyCode" : "CAD"
        }        
    ],
    "productType" : [
        {
            "code" : "w",
            "name" : "wall chart",
            "max" : 99
        },
        {
            "code" : "h",
            "name" : "handout",
            "max" : 999
        }
    ],
    "language" : [
        {
            "code" : "en",
            "name" : {
                "en" : "english",
                "es" : "inglés",
                "fr" : "anglais"
            }
        },
        {
            "code" : "es",
            "name" : {
                "en" : "spanish",
                "es" : "español",
                "fr" : "espagnol"
            }
        },
        {
            "code" : "fr",
            "name" : {
                "en" : "french",
                "es" : "francés",
                "fr" : "français"
            }
        }
    ],
    "pricing" : [ 
        { 
        "code" : 1, 
        "h" : 19.99, 
        "w" : 58.99
        }, 
        { 
        "code" : 2, 
        "h" : 17.99, 
        "w" : 46.99
        }, 
        { 
        "code" : 5, 
        "h" : 16.99, 
        "w" : 34.99
        }, 
        { 
        "code" : 10, 
        "h" : 15.99, 
        "w" : 32.99
        }, 
        { 
        "code" : 50, 
        "h" : 13.99, 
        "w" : 29.99
        }, 
        { 
        "code" : 100, 
        "h" : 11.99
        }, 
        { 
        "code" : 500, 
        "h" : 9.99
        } 
    ],
    "nav" : [
        {
            "code" : "bigpicture",
            "link" : "bigpicture",
            "name" : "The Big Picture"
        },
        {
            "code" : "order",
            "link" : "order",
            "name" : "Order"
        },
        {
            "code" : "contact",
            "link" : "contact",
            "name" : "Contact"
        }
    ]
}